…
처럼 나옴 말인 즉슨, NA값은 항상 마지막으로 정렬됨

## select()

select() 변수 이름을 기반으로 검색하여 선택 할수 있는 기능

```
# Select columns by name
select(flights, year, month, day)
#> # A tibble: 336,776 x 3
#>    year month   day
#>   <int> <int> <int>
#> 1  2013     1     1
#> 2  2013     1     1
#> 3  2013     1     1
#> 4  2013     1     1
#> 5  2013     1     1
#> 6  2013     1     1
#> # … with 336,770 more rows
…
